%YAML 1.1
%TAG !u! tag:unity3d.com,2011:
--- !u!21 &2100000
Material:
  serializedVersion: 3
  m_ObjectHideFlags: 0
  m_PrefabParentObject: {fileID: 0}
  m_PrefabInternal: {fileID: 0}
  m_Name: flamme 1
  m_Shader: {fileID: 202, guid: 0000000000000000f000000000000000, type: 0}
  m_ShaderKeywords: []
  m_CustomRenderQueue: -1
  m_SavedProperties:
    serializedVersion: 2
    m_TexEnvs:
      data:
        first:
          name: _MainTex
        second:
          m_Texture: {fileID: 2800000, guid: 75f6042730a3bb244ac593099b1d975f, type: 3}
          m_Scale: {x: 1, y: 1}
          m_Offset: {x: 0, y: 0}
      data:
        first:
          name: _BumpMap
        second:
          m_Texture: {fileID: 2800000, guid: b9a5ba3ffebd6fa48b9696f1f8ec8f04, type: 3}
          m_Scale: {x: 1, y: 1}
          m_Offset: {x: 0, y: 0}
      data:
        first:
          name: _Cube
        second:
          m_Texture: {fileID: 8900000, guid: 8f132f1cad00d3442a551008fdfc9535, type: 2}
          m_Scale: {x: 1, y: 1}
          m_Offset: {x: 0, y: 0}
      data:
        first:
          name: _Illum
        second:
          m_Texture: {fileID: 2800000, guid: de61ee264a579294f9a88158767c2283, type: 3}
          m_Scale: {x: 1, y: 1}
          m_Offset: {x: 0, y: 0}
      data:
        first:
          name: _LightMap
        second:
          m_Texture: {fileID: 2800000, guid: 72ce20839a989054bb0d417aa6090799, type: 3}
          m_Scale: {x: 1, y: 1}
          m_Offset: {x: 0, y: 0}
    m_Floats:
      data:
        first:
          name: _Shininess
        second: .293342382
      data:
        first:
          name: _EmissionLM
        second: 0
      data:
        first:
          name: _InvFade
        second: 3
    m_Colors:
      data:
        first:
          name: _Color
        second: {r: .440298498, g: .440298498, b: .440298498, a: 1}
      data:
        first:
          name: _SpecColor
        second: {r: .0298507214, g: .0298507214, b: .0298507214, a: 1}
      data:
        first:
          name: _ReflectColor
        second: {r: .111940324, g: .111940324, b: .111940324, a: .501960814}
      data:
        first:
          name: _TintColor
        second: {r: .470149279, g: .470149279, b: .470149279, a: .501960814}
      data:
        first:
          name: _EmisColor
        second: {r: .200000003, g: .200000003, b: .200000003, a: 0}
--- !u!1002 &2100001
EditorExtensionImpl:
  serializedVersion: 6
